{
  "formatVersion": 1,
  "database": {
    "version": 2,
    "identityHash": "0404756c532afa8b7f9b327e678b0281",
    "entities": [
      {
        "tableName": "presses",
        "createSql": "CREATE TABLE IF NOT EXISTS `${TABLE_NAME}` (`id` TEXT NOT NULL, `date` TEXT, `buttonId` INTEGER NOT NULL, PRIMARY KEY(`id`))",
        "fields": [
          {
            "fieldPath": "id",
            "columnName": "id",
            "affinity": "TEXT",
            "notNull": true
          },
          {
            "fieldPath": "date",
            "columnName": "date",
            "affinity": "TEXT",
            "notNull": false
          },
          {
            "fieldPath": "buttonId",
            "columnName": "buttonId",
            "affinity": "INTEGER",
            "notNull": true
          }
        ],
        "primaryKey": {
          "columnNames": [
            "id"
          ],
          "autoGenerate": false
        },
        "indices": [],
        "foreignKeys": []
      },
      {
        "tableName": "statistics",
        "createSql": "CREATE TABLE IF NOT EXISTS `${TABLE_NAME}` (`buttonId` INTEGER NOT NULL, `pressesNumber` INTEGER NOT NULL, PRIMARY KEY(`buttonId`))",
        "fields": [
          {
            "fieldPath": "buttonId",
            "columnName": "buttonId",
            "affinity": "INTEGER",
            "notNull": true
          },
          {
            "fieldPath": "pressesNumber",
            "columnName": "pressesNumber",
            "affinity": "INTEGER",
            "notNull": true
          }
        ],
        "primaryKey": {
          "columnNames": [
            "buttonId"
          ],
          "autoGenerate": false
        },
        "indices": [],
        "foreignKeys": []
      },
      {
        "tableName": "devices",
        "createSql": "CREATE TABLE IF NOT EXISTS `${TABLE_NAME}` (`address` TEXT NOT NULL, `name` TEXT, `charge` REAL NOT NULL, `lastChargeReceived` INTEGER NOT NULL, `lastCanConnectReceived` INTEGER NOT NULL, `connectionState` INTEGER, `lastConnected` INTEGER NOT NULL, `lastInfoUpdated` INTEGER NOT NULL, PRIMARY KEY(`address`))",
        "fields": [
          {
            "fieldPath": "address",
            "columnName": "address",
            "affinity": "TEXT",
            "notNull": true
          },
          {
            "fieldPath": "name",
            "columnName": "name",
            "affinity": "TEXT",
            "notNull": false
          },
          {
            "fieldPath": "charge",
            "columnName": "charge",
            "affinity": "REAL",
            "notNull": true
          },
          {
            "fieldPath": "lastChargeReceived",
            "columnName": "lastChargeReceived",
            "affinity": "INTEGER",
            "notNull": true
          },
          {
            "fieldPath": "lastCanConnectReceived",
            "columnName": "lastCanConnectReceived",
            "affinity": "INTEGER",
            "notNull": true
          },
          {
            "fieldPath": "connectionState",
            "columnName": "connectionState",
            "affinity": "INTEGER",
            "notNull": false
          },
          {
            "fieldPath": "lastConnected",
            "columnName": "lastConnected",
            "affinity": "INTEGER",
            "notNull": true
          },
          {
            "fieldPath": "lastInfoUpdated",
            "columnName": "lastInfoUpdated",
            "affinity": "INTEGER",
            "notNull": true
          }
        ],
        "primaryKey": {
          "columnNames": [
            "address"
          ],
          "autoGenerate": false
        },
        "indices": [],
        "foreignKeys": []
      }
    ],
    "setupQueries": [
      "CREATE TABLE IF NOT EXISTS room_master_table (id INTEGER PRIMARY KEY,identity_hash TEXT)",
      "INSERT OR REPLACE INTO room_master_table (id,identity_hash) VALUES(42, \"0404756c532afa8b7f9b327e678b0281\")"
    ]
  }
}